<?xml version="1.0" encoding="utf-8"?>
<!-- Generator: Adobe Illustrator 27.8.1, SVG Export Plug-In . SVG Version: 6.00 Build 0)  -->
<svg version="1.1" id="Ebene_1" xmlns="http://www.w3.org/2000/svg" xmlns:xlink="http://www.w3.org/1999/xlink" x="0px" y="0px"
	 viewBox="0 0 226.77 226.77" style="enable-background:new 0 0 226.77 226.77;" xml:space="preserve">
<style type="text/css">
	.st0{fill:#E30613;}
	.st1{fill:none;}
</style>
<path class="st0" d="M182.67,202.72c0.57-0.55,0.86-1.23,0.86-2.05c0-0.5-0.09-0.92-0.27-1.27c-0.18-0.34-0.46-0.65-0.82-0.92
	l-22.57-18.6l22.57-18.6c0.36-0.27,0.64-0.59,0.82-0.96c0.18-0.36,0.27-0.77,0.27-1.23c0-0.82-0.29-1.5-0.86-2.05
	c-0.57-0.55-1.24-0.82-2.02-0.82c-0.68,0-1.32,0.23-1.92,0.68l-25.44,20.93c-1.69,1.37-1.69,2.74,0,4.1l25.44,20.93
	c0.59,0.46,1.23,0.68,1.92,0.68C181.43,203.55,182.1,203.27,182.67,202.72"/>
<path d="M125.63,205.07c0.54-0.55,0.81-1.33,0.81-2.33v-41.38h14.57c1.05,0,1.84-0.26,2.37-0.79c0.53-0.53,0.79-1.31,0.79-2.37
	c0-1.05-0.26-1.84-0.79-2.37c-0.53-0.53-1.31-0.79-2.37-0.79h-35.45c-1.05,0-1.84,0.26-2.37,0.79c-0.53,0.53-0.79,1.31-0.79,2.37
	c0,1.05,0.26,1.84,0.79,2.37c0.53,0.53,1.31,0.79,2.37,0.79h14.57v41.38c0,1.05,0.26,1.84,0.79,2.37c0.53,0.53,1.31,0.79,2.37,0.79
	C124.31,205.9,125.09,205.62,125.63,205.07 M91.67,205.13c0.5-0.51,0.75-1.31,0.75-2.38v-44.53c0-1.1-0.25-1.9-0.75-2.4
	c-0.5-0.5-1.3-0.75-2.4-0.75c-1.08,0-1.87,0.25-2.38,0.75c-0.51,0.5-0.77,1.3-0.77,2.4v44.53c0,1.08,0.26,1.87,0.77,2.38
	c0.51,0.51,1.31,0.77,2.38,0.77C90.37,205.9,91.17,205.64,91.67,205.13"/>
<path d="M153.78,94.24h14.94c3.2,0,5.74,0.4,7.6,1.2c1.87,0.8,3.19,2.13,3.98,4c0.79,1.87,1.18,4.39,1.18,7.57v12.77
	c0,3.2-0.39,5.74-1.18,7.6c-0.79,1.86-2.12,3.19-3.98,3.98c-1.86,0.79-4.4,1.18-7.6,1.18h-14.94V94.24z M168.73,138.85
	c6.58,0,11.41-1.55,14.48-4.64c3.07-3.09,4.6-7.9,4.6-14.44V107c0-6.53-1.55-11.35-4.64-14.44c-3.09-3.09-7.9-4.64-14.44-4.64h-18.1
	c-2.1,0-3.15,1.05-3.15,3.15v44.61c0,2.1,1.05,3.15,3.15,3.15H168.73z M130.74,138.85c2.1,0,3.15-1.05,3.15-3.15
	s-1.05-3.15-3.15-3.15h-23.81v-16.22h14.94c2.1,0,3.15-1.05,3.15-3.15s-1.05-3.15-3.15-3.15h-14.94V94.24h23.81
	c2.1,0,3.15-1.05,3.15-3.15c0-2.1-1.05-3.15-3.15-3.15h-26.96c-2.1,0-3.15,1.05-3.15,3.15v44.61c0,2.1,1.05,3.15,3.15,3.15H130.74z
	 M42.51,135.69v-37.1l-1.88-0.53l15.77,23.21c0.93,1.35,1.95,2.03,3.08,2.03c1.63,0,2.9-0.68,3.83-2.03l15.77-23.21l-1.95-0.68v38.3
	c0,2.1,1.05,3.15,3.15,3.15c2.1,0,3.15-1.05,3.15-3.15V91.08c0-2.1-0.85-3.15-2.55-3.15c-1.7,0-2.98,0.68-3.83,2.03l-17.87,26.89
	l1.35-0.23L42.81,89.96c-0.93-1.35-2.08-2.03-3.45-2.03c-2.1,0-3.15,1.05-3.15,3.15v44.61c0,2.1,1.05,3.15,3.15,3.15
	S42.51,137.79,42.51,135.69"/>
<path d="M155.66,64.53c-1.53-0.64-2.61-1.72-3.25-3.25c-0.64-1.53-0.96-3.63-0.96-6.31V37.62c0-2.68,0.33-4.78,0.98-6.31
	c0.65-1.53,1.74-2.6,3.27-3.23c1.53-0.63,3.62-0.93,6.27-0.9h9.01c2.68,0,4.78,0.33,6.31,0.98c1.53,0.65,2.61,1.74,3.25,3.27
	c0.64,1.53,0.96,3.62,0.96,6.27v17.27c0,2.68-0.32,4.78-0.96,6.31c-0.64,1.53-1.72,2.61-3.25,3.25c-1.53,0.64-3.63,0.96-6.31,0.96
	h-9.01C159.29,65.48,157.19,65.17,155.66,64.53 M170.98,71.79c5.76,0,10-1.37,12.73-4.11c2.73-2.74,4.09-6.98,4.09-12.71V37.7
	c0-5.76-1.36-10-4.09-12.73c-2.73-2.73-6.97-4.09-12.73-4.09h-9.01c-5.71-0.05-9.94,1.28-12.69,4c-2.75,2.72-4.13,6.97-4.13,12.75
	v17.35c0,5.73,1.37,9.97,4.11,12.71c2.74,2.74,6.98,4.11,12.71,4.11H170.98z M130.58,71.02c0.5-0.51,0.75-1.31,0.75-2.38V24.1
	c0-1.1-0.25-1.9-0.75-2.4c-0.5-0.5-1.3-0.75-2.4-0.75c-1.08,0-1.87,0.25-2.38,0.75c-0.51,0.5-0.77,1.3-0.77,2.4v44.53
	c0,1.08,0.26,1.87,0.77,2.38c0.51,0.51,1.31,0.77,2.38,0.77C129.28,71.79,130.08,71.54,130.58,71.02 M80.79,27.18h16.45
	c2.25,0,3.83,0.43,4.73,1.3c0.9,0.86,1.35,2.38,1.35,4.56v2.03c0,1.75-0.33,3.19-1,4.32c-0.66,1.13-1.91,1.69-3.74,1.69h-17.8V27.18
	z M80.79,47.39h17.42c2.9,0,4.94,0.59,6.12,1.78c1.18,1.19,1.76,3.17,1.76,5.95v2.55c0,2.78-0.61,4.78-1.82,5.99
	c-1.21,1.21-3.24,1.82-6.06,1.82H80.79V47.39z M98.21,71.79c4.58,0,8.09-1.2,10.53-3.6c2.44-2.4,3.66-5.91,3.66-10.51v-2.55
	c0-5.91-1.99-9.98-5.97-12.2c2.13-1.85,3.19-4.47,3.19-7.85v-2.03c0-3.91-1.07-6.91-3.21-9.01c-2.14-2.1-5.2-3.15-9.18-3.15h-19.6
	c-2.1,0-3.15,1.05-3.15,3.15v44.61c0,2.1,1.05,3.15,3.15,3.15H98.21z"/>
<path class="st0" d="M34.77,68.62c-0.57-0.55-0.86-1.23-0.86-2.05c0-0.5,0.09-0.92,0.27-1.27c0.18-0.34,0.45-0.65,0.82-0.92
	l22.57-18.6l-22.57-18.6c-0.37-0.27-0.64-0.59-0.82-0.96c-0.18-0.36-0.27-0.77-0.27-1.23c0-0.82,0.28-1.5,0.86-2.05
	c0.57-0.55,1.24-0.82,2.02-0.82c0.68,0,1.32,0.23,1.92,0.68l25.44,20.93c1.69,1.37,1.69,2.74,0,4.1L38.7,68.76
	c-0.59,0.46-1.23,0.68-1.92,0.68C36.01,69.44,35.34,69.17,34.77,68.62"/>
<rect x="31.8" y="20.87" class="st1" width="156" height="185.02"/>
</svg>
