-----BEGIN PGP PUBLIC KEY BLOCK-----
Comment: C062 1CB3 6690 20CC 3105  0A36 1956 EC38 A96C A852
Comment: Chuck Norris (256 ECC no expiry) <chuck.norris@roundhou

xjMEY3I4HxYJKwYBBAHaRw8BAQdA2wcepzI8iIGnZTyFtn45oer/b31tBv4Q2ZNl
LQq21RLNPkNodWNrIE5vcnJpcyAoMjU2IEVDQyBubyBleHBpcnkpIDxjaHVjay5u
b3JyaXNAcm91bmRob3VzZS5vcmc+wpAEExYIADgWIQTAYhyzZpAgzDEFCjYZVuw4
qWyoUgUCY3I4HwIbAwULCQgHAgYVCgkICwIEFgIDAQIeAQIXgAAKCRAZVuw4qWyo
UvWdAP9bBrKLjRQvI3AW4LHuoo+CmAwNtGbFDODP4ejGH73X+QD+PgnSZCghWmss
3SFsO790kHM28LYEO5UHXjgQv0Zf3g7OOARjcjgfEgorBgEEAZdVAQUBAQdAWPqF
btjlATGmKBGW39aaPV/1oSRSfIVNgD+0G1oprxkDAQgHwngEGBYIACAWIQTAYhyz
ZpAgzDEFCjYZVuw4qWyoUgUCY3I4HwIbDAAKCRAZVuw4qWyoUr3XAQDOBqvd2eC1
JhEYyYmzy9Ywn9zXdEKOgN/0D55kKawnUAD/djzP483sPfiT8Iv58ZfkU2PTWMeP
8E51tOvXfSFVVQI=
=w7u9
-----END PGP PUBLIC KEY BLOCK-----
