{
  $schema: "https://docs.renovatebot.com/renovate-schema.json",
  extends: [
    "config:recommended",
    ":semanticCommitTypeAll(chore)",
    "schedule:weekends",
  ],
  labels: ["renovate"],
  packageRules: [
    {
      matchManagers: ["gitlabci-include"],
      enabled: false,
    },
    {
      matchManagers: ["npm"],
      matchUpdateTypes: ["minor", "patch"],
      groupName: "npm",
    },
    {
      matchManagers: ["pep621"],
      matchUpdateTypes: ["minor", "patch"],
      groupName: "python",
    },
    {
      matchManagers: ["cargo"],
      matchUpdateTypes: ["minor", "patch"],
      matchCurrentVersion: "!/^0/",
      enabled: false,
    },
    {
      matchManagers: ["cargo"],
      matchUpdateTypes: ["patch"],
      matchCurrentVersion: "/^0/",
      enabled: false,
    },
    // Disable all updates related to the http proxy workaround.
    // If necessary, these crates should be updated manually, e.g.
    // when other `aws-` crates are updated.
    {
      matchManagers: ["cargo"],
      matchPackagePatterns: [
        "aws-smithy-runtime",
        "hyper-proxy",
        "hyper-rustls",
        "rustls",
      ],
      enabled: false,
    },
  ],
  regexManagers: [
    {
      customType: "regex",
      fileMatch: ["^.gitlab-ci\\.ya?ml$"],
      matchStrings: ['RUST_TOOLCHAIN_VERSION:\\s*"?(?<currentValue>[\\d\\.]+)'],
      depNameTemplate: "rust",
      datasourceTemplate: "docker",
    },
  ],
  lockFileMaintenance: {
    enabled: true,
  },
}
